<?xml version="1.0" encoding="utf-8"?>
<!-- Generator: Adobe Illustrator 19.0.0, SVG Export Plug-In . SVG Version: 6.00 Build 0)  -->
<svg version="1.1" id="Layer_1" xmlns="http://www.w3.org/2000/svg" xmlns:xlink="http://www.w3.org/1999/xlink" x="0px" y="0px"
	 viewBox="-204 206 90 90" style="enable-background:new -204 206 90 90;" xml:space="preserve">
<style type="text/css">
	.st0{fill:#0059FF;}
	.st1{fill:#08B1FA;}
</style>
<g>
	<path class="st0" d="M-145.3,264.5h-1.4l-16.3-7.4c0-7.9-6.1-7.6-0.7-12.6c4.8-4.4,11.3-7.1,18.3-7.1c15,0,27.1,12.1,27.1,27.1
		H-145.3z"/>
	<path class="st1" d="M-172.6,264.5h-27.1c0-15,12.1-27.1,27.1-27.1s27.1,12.1,27.1,27.1H-172.6z"/>
</g>
</svg>
